-- Merging decision tree log ---
manifest
ADDED from /home/raka/omind-test/android/app/src/main/AndroidManifest.xml:1:1-28:12
INJECTED from /home/raka/omind-test/android/app/src/main/AndroidManifest.xml:1:1-28:12
INJECTED from /home/raka/omind-test/android/app/src/main/AndroidManifest.xml:1:1-28:12
INJECTED from /home/raka/omind-test/android/app/src/main/AndroidManifest.xml:1:1-28:12
MERGED from [:react-native-async-storage_async-storage] /home/raka/omind-test/node_modules/@react-native-async-storage/async-storage/android/build/intermediates/library_manifest/release/AndroidManifest.xml:2:1-9:12
MERGED from [:react-native-community_masked-view] /home/raka/omind-test/node_modules/@react-native-community/masked-view/android/build/intermediates/library_manifest/release/AndroidManifest.xml:2:1-9:12
MERGED from [:react-native-picker_picker] /home/raka/omind-test/node_modules/@react-native-picker/picker/android/build/intermediates/library_manifest/release/AndroidManifest.xml:2:1-9:12
MERGED from [:react-native-gesture-handler] /home/raka/omind-test/node_modules/react-native-gesture-handler/android/build/intermediates/library_manifest/release/AndroidManifest.xml:2:1-11:12
MERGED from [:react-native-image-picker] /home/raka/omind-test/node_modules/react-native-image-picker/android/build/intermediates/library_manifest/release/AndroidManifest.xml:2:1-21:12
MERGED from [:react-native-reanimated] /home/raka/omind-test/node_modules/react-native-reanimated/android/build/intermediates/library_manifest/release/AndroidManifest.xml:2:1-11:12
MERGED from [:react-native-safe-area-context] /home/raka/omind-test/node_modules/react-native-safe-area-context/android/build/intermediates/library_manifest/release/AndroidManifest.xml:2:1-9:12
MERGED from [:react-native-screens] /home/raka/omind-test/node_modules/react-native-screens/android/build/intermediates/library_manifest/release/AndroidManifest.xml:2:1-11:12
MERGED from [:react-native-vector-icons] /home/raka/omind-test/node_modules/react-native-vector-icons/android/build/intermediates/library_manifest/release/AndroidManifest.xml:2:1-11:12
MERGED from [com.facebook.react:react-native:0.63.4] /home/raka/.gradle/caches/transforms-2/files-2.1/517cadc63f0cffa9df134976c7fd06b6/jetified-react-native-0.63.4/AndroidManifest.xml:2:1-13:12
MERGED from [androidx.swiperefreshlayout:swiperefreshlayout:1.0.0] /home/raka/.gradle/caches/transforms-2/files-2.1/37b6f551bc5ae153b0b627de8f563815/swiperefreshlayout-1.0.0/AndroidManifest.xml:17:1-22:12
MERGED from [org.webkit:android-jsc:r245459] /home/raka/.gradle/caches/transforms-2/files-2.1/6dd6245206e34676e1ee3aa6ee0f68c9/android-jsc-r245459/AndroidManifest.xml:2:1-11:12
MERGED from [com.google.android.material:material:1.1.0] /home/raka/.gradle/caches/transforms-2/files-2.1/863e0c3c6716935cd3657ad638fd992d/material-1.1.0/AndroidManifest.xml:17:1-24:12
MERGED from [androidx.appcompat:appcompat:1.1.0] /home/raka/.gradle/caches/transforms-2/files-2.1/1cb9b9ea592aa2ea85233be252327dcf/appcompat-1.1.0/AndroidManifest.xml:17:1-24:12
MERGED from [com.facebook.fresco:fresco:2.0.0] /home/raka/.gradle/caches/transforms-2/files-2.1/454c96154d0a2efb5f34ced0245cf76d/fresco-2.0.0/AndroidManifest.xml:2:1-9:12
MERGED from [com.facebook.fresco:imagepipeline-okhttp3:2.0.0] /home/raka/.gradle/caches/transforms-2/files-2.1/559ddc4b7f576fedc63e05921b88e895/imagepipeline-okhttp3-2.0.0/AndroidManifest.xml:2:1-9:12
MERGED from [com.facebook.fresco:drawee:2.0.0] /home/raka/.gradle/caches/transforms-2/files-2.1/6c8969c989a883c90728abf2f80f32fb/drawee-2.0.0/AndroidManifest.xml:2:1-9:12
MERGED from [com.facebook.fresco:nativeimagefilters:2.0.0] /home/raka/.gradle/caches/transforms-2/files-2.1/5a2410130ba40b82b4f9bed40d7f483e/nativeimagefilters-2.0.0/AndroidManifest.xml:2:1-9:12
MERGED from [com.facebook.fresco:imagepipeline:2.0.0] /home/raka/.gradle/caches/transforms-2/files-2.1/13dda75bcf2643fb917d5dc46398410e/imagepipeline-2.0.0/AndroidManifest.xml:2:1-9:12
MERGED from [com.facebook.fresco:nativeimagetranscoder:2.0.0] /home/raka/.gradle/caches/transforms-2/files-2.1/c416dd8728d3ebccaf2e74e1e1aab223/nativeimagetranscoder-2.0.0/AndroidManifest.xml:2:1-9:12
MERGED from [com.facebook.fresco:imagepipeline-base:2.0.0] /home/raka/.gradle/caches/transforms-2/files-2.1/95ee73f6c014e94cc84e3a19f64125f8/imagepipeline-base-2.0.0/AndroidManifest.xml:2:1-9:12
MERGED from [com.facebook.soloader:soloader:0.9.0] /home/raka/.gradle/caches/transforms-2/files-2.1/c34148f30cbc3e974eff21cbfb6a112a/soloader-0.9.0/AndroidManifest.xml:2:1-13:12
MERGED from [androidx.appcompat:appcompat-resources:1.1.0] /home/raka/.gradle/caches/transforms-2/files-2.1/b1b165607eae60d70e4267b97e24514b/appcompat-resources-1.1.0/AndroidManifest.xml:17:1-24:12
MERGED from [androidx.vectordrawable:vectordrawable-animated:1.1.0] /home/raka/.gradle/caches/transforms-2/files-2.1/28888a6f6660db47b3788df392c672a7/vectordrawable-animated-1.1.0/AndroidManifest.xml:17:1-24:12
MERGED from [androidx.interpolator:interpolator:1.0.0] /home/raka/.gradle/caches/transforms-2/files-2.1/efb592adf2592d134c27edc4a56e19d2/interpolator-1.0.0/AndroidManifest.xml:17:1-22:12
MERGED from [androidx.viewpager2:viewpager2:1.0.0] /home/raka/.gradle/caches/transforms-2/files-2.1/8cd6316737e8f518184be95be51b9ee8/viewpager2-1.0.0/AndroidManifest.xml:17:1-24:12
MERGED from [androidx.fragment:fragment:1.2.1] /home/raka/.gradle/caches/transforms-2/files-2.1/37aaca75d3d19faa6fb296103cea95d8/fragment-1.2.1/AndroidManifest.xml:17:1-24:12
MERGED from [androidx.coordinatorlayout:coordinatorlayout:1.1.0] /home/raka/.gradle/caches/transforms-2/files-2.1/c062602fe4e1f75f724363688044d993/coordinatorlayout-1.1.0/AndroidManifest.xml:17:1-24:12
MERGED from [androidx.drawerlayout:drawerlayout:1.0.0] /home/raka/.gradle/caches/transforms-2/files-2.1/c99af001058cd5265376dded8456f828/drawerlayout-1.0.0/AndroidManifest.xml:17:1-22:12
MERGED from [androidx.viewpager:viewpager:1.0.0] /home/raka/.gradle/caches/transforms-2/files-2.1/40f1c5d439eea30faeaafe93e7bdf45f/viewpager-1.0.0/AndroidManifest.xml:17:1-22:12
MERGED from [androidx.loader:loader:1.0.0] /home/raka/.gradle/caches/transforms-2/files-2.1/faa15558a5d57e35e462c9e1f0248694/loader-1.0.0/AndroidManifest.xml:17:1-22:12
MERGED from [androidx.activity:activity:1.1.0] /home/raka/.gradle/caches/transforms-2/files-2.1/89bcabef273c834c0566b445ed28172c/activity-1.1.0/AndroidManifest.xml:17:1-24:12
MERGED from [androidx.recyclerview:recyclerview:1.1.0] /home/raka/.gradle/caches/transforms-2/files-2.1/4300f0cd89d6453d731712a999b6e53f/recyclerview-1.1.0/AndroidManifest.xml:17:1-24:12
MERGED from [androidx.customview:customview:1.0.0] /home/raka/.gradle/caches/transforms-2/files-2.1/e0a79d4379c4eef3803202a497c19313/customview-1.0.0/AndroidManifest.xml:17:1-22:12
MERGED from [androidx.transition:transition:1.2.0] /home/raka/.gradle/caches/transforms-2/files-2.1/820068d4be612586a05a9daff9be7b77/transition-1.2.0/AndroidManifest.xml:17:1-24:12
MERGED from [androidx.vectordrawable:vectordrawable:1.1.0] /home/raka/.gradle/caches/transforms-2/files-2.1/6bd464ed06f075f4e42b3fde6a89e60a/vectordrawable-1.1.0/AndroidManifest.xml:17:1-24:12
MERGED from [androidx.core:core:1.1.0] /home/raka/.gradle/caches/transforms-2/files-2.1/639e914bfc1efa21e36199d3ff2c5eef/core-1.1.0/AndroidManifest.xml:17:1-26:12
MERGED from [androidx.cursoradapter:cursoradapter:1.0.0] /home/raka/.gradle/caches/transforms-2/files-2.1/3b41f2ef3d4a30256bbd9d1017371108/cursoradapter-1.0.0/AndroidManifest.xml:17:1-22:12
MERGED from [androidx.versionedparcelable:versionedparcelable:1.1.0] /home/raka/.gradle/caches/transforms-2/files-2.1/2786c84c1e653e40bd67508414ca298f/versionedparcelable-1.1.0/AndroidManifest.xml:17:1-27:12
MERGED from [androidx.lifecycle:lifecycle-viewmodel-savedstate:2.2.0] /home/raka/.gradle/caches/transforms-2/files-2.1/db36fbbf4470b1ce63fe644e40ae81d3/lifecycle-viewmodel-savedstate-2.2.0/AndroidManifest.xml:17:1-24:12
MERGED from [androidx.lifecycle:lifecycle-viewmodel:2.2.0] /home/raka/.gradle/caches/transforms-2/files-2.1/304e6293e0820147023aa187c0f862e1/lifecycle-viewmodel-2.2.0/AndroidManifest.xml:17:1-24:12
MERGED from [androidx.cardview:cardview:1.0.0] /home/raka/.gradle/caches/transforms-2/files-2.1/7ce8a2eb9e81825ec9bcc373c597a746/cardview-1.0.0/AndroidManifest.xml:17:1-22:12
MERGED from [androidx.lifecycle:lifecycle-runtime:2.2.0] /home/raka/.gradle/caches/transforms-2/files-2.1/124ee19a63f3e171c196264ecc845daa/lifecycle-runtime-2.2.0/AndroidManifest.xml:17:1-24:12
MERGED from [androidx.savedstate:savedstate:1.0.0] /home/raka/.gradle/caches/transforms-2/files-2.1/4ce17f8b4390b23da9bedc3cee010ec1/savedstate-1.0.0/AndroidManifest.xml:17:1-24:12
MERGED from [androidx.lifecycle:lifecycle-livedata:2.0.0] /home/raka/.gradle/caches/transforms-2/files-2.1/4da6ddd3c71dbaec92b0fdf3bbca4ce7/lifecycle-livedata-2.0.0/AndroidManifest.xml:17:1-22:12
MERGED from [androidx.lifecycle:lifecycle-livedata-core:2.2.0] /home/raka/.gradle/caches/transforms-2/files-2.1/2ef959591ee3dfd7e7d0f130ebacb270/lifecycle-livedata-core-2.2.0/AndroidManifest.xml:17:1-24:12
MERGED from [androidx.arch.core:core-runtime:2.1.0] /home/raka/.gradle/caches/transforms-2/files-2.1/babedcb26ba2505096ea9fb87ec93180/core-runtime-2.1.0/AndroidManifest.xml:17:1-24:12
MERGED from [com.facebook.fresco:fbcore:2.0.0] /home/raka/.gradle/caches/transforms-2/files-2.1/3fbaab37751197ac963d740c840fac2d/jetified-fbcore-2.0.0/AndroidManifest.xml:2:1-9:12
INJECTED from /home/raka/omind-test/android/app/src/main/AndroidManifest.xml:1:1-28:12
INJECTED from /home/raka/omind-test/android/app/src/main/AndroidManifest.xml:1:1-28:12
INJECTED from /home/raka/omind-test/android/app/src/main/AndroidManifest.xml:1:1-28:12
	package
		ADDED from /home/raka/omind-test/android/app/src/main/AndroidManifest.xml:2:3-26
		INJECTED from /home/raka/omind-test/android/app/src/main/AndroidManifest.xml
		INJECTED from /home/raka/omind-test/android/app/src/main/AndroidManifest.xml
	android:versionName
		INJECTED from /home/raka/omind-test/android/app/src/main/AndroidManifest.xml
		ADDED from /home/raka/omind-test/android/app/src/main/AndroidManifest.xml:1:1-28:12
		INJECTED from /home/raka/omind-test/android/app/src/main/AndroidManifest.xml
	android:versionCode
		INJECTED from /home/raka/omind-test/android/app/src/main/AndroidManifest.xml
		ADDED from /home/raka/omind-test/android/app/src/main/AndroidManifest.xml:1:1-28:12
		INJECTED from /home/raka/omind-test/android/app/src/main/AndroidManifest.xml
	xmlns:android
		ADDED from /home/raka/omind-test/android/app/src/main/AndroidManifest.xml:1:11-69
uses-permission#android.permission.INTERNET
ADDED from /home/raka/omind-test/android/app/src/main/AndroidManifest.xml:4:5-67
	android:name
		ADDED from /home/raka/omind-test/android/app/src/main/AndroidManifest.xml:4:22-64
uses-permission#android.permission.CAMERA
ADDED from /home/raka/omind-test/android/app/src/main/AndroidManifest.xml:5:5-65
	android:name
		ADDED from /home/raka/omind-test/android/app/src/main/AndroidManifest.xml:5:22-62
uses-permission#android.permission.WRITE_EXTERNAL_STORAGE
ADDED from /home/raka/omind-test/android/app/src/main/AndroidManifest.xml:6:5-80
	android:name
		ADDED from /home/raka/omind-test/android/app/src/main/AndroidManifest.xml:6:22-78
application
ADDED from /home/raka/omind-test/android/app/src/main/AndroidManifest.xml:7:5-26:19
MERGED from [:react-native-image-picker] /home/raka/omind-test/node_modules/react-native-image-picker/android/build/intermediates/library_manifest/release/AndroidManifest.xml:9:5-19:19
MERGED from [:react-native-image-picker] /home/raka/omind-test/node_modules/react-native-image-picker/android/build/intermediates/library_manifest/release/AndroidManifest.xml:9:5-19:19
MERGED from [com.facebook.react:react-native:0.63.4] /home/raka/.gradle/caches/transforms-2/files-2.1/517cadc63f0cffa9df134976c7fd06b6/jetified-react-native-0.63.4/AndroidManifest.xml:11:5-20
MERGED from [com.facebook.react:react-native:0.63.4] /home/raka/.gradle/caches/transforms-2/files-2.1/517cadc63f0cffa9df134976c7fd06b6/jetified-react-native-0.63.4/AndroidManifest.xml:11:5-20
MERGED from [com.google.android.material:material:1.1.0] /home/raka/.gradle/caches/transforms-2/files-2.1/863e0c3c6716935cd3657ad638fd992d/material-1.1.0/AndroidManifest.xml:22:5-20
MERGED from [com.google.android.material:material:1.1.0] /home/raka/.gradle/caches/transforms-2/files-2.1/863e0c3c6716935cd3657ad638fd992d/material-1.1.0/AndroidManifest.xml:22:5-20
MERGED from [com.facebook.soloader:soloader:0.9.0] /home/raka/.gradle/caches/transforms-2/files-2.1/c34148f30cbc3e974eff21cbfb6a112a/soloader-0.9.0/AndroidManifest.xml:11:5-20
MERGED from [com.facebook.soloader:soloader:0.9.0] /home/raka/.gradle/caches/transforms-2/files-2.1/c34148f30cbc3e974eff21cbfb6a112a/soloader-0.9.0/AndroidManifest.xml:11:5-20
MERGED from [androidx.core:core:1.1.0] /home/raka/.gradle/caches/transforms-2/files-2.1/639e914bfc1efa21e36199d3ff2c5eef/core-1.1.0/AndroidManifest.xml:24:5-89
MERGED from [androidx.core:core:1.1.0] /home/raka/.gradle/caches/transforms-2/files-2.1/639e914bfc1efa21e36199d3ff2c5eef/core-1.1.0/AndroidManifest.xml:24:5-89
MERGED from [androidx.versionedparcelable:versionedparcelable:1.1.0] /home/raka/.gradle/caches/transforms-2/files-2.1/2786c84c1e653e40bd67508414ca298f/versionedparcelable-1.1.0/AndroidManifest.xml:24:5-25:19
MERGED from [androidx.versionedparcelable:versionedparcelable:1.1.0] /home/raka/.gradle/caches/transforms-2/files-2.1/2786c84c1e653e40bd67508414ca298f/versionedparcelable-1.1.0/AndroidManifest.xml:24:5-25:19
	android:appComponentFactory
		ADDED from [androidx.core:core:1.1.0] /home/raka/.gradle/caches/transforms-2/files-2.1/639e914bfc1efa21e36199d3ff2c5eef/core-1.1.0/AndroidManifest.xml:24:18-86
	android:label
		ADDED from /home/raka/omind-test/android/app/src/main/AndroidManifest.xml:9:7-39
	android:roundIcon
		ADDED from /home/raka/omind-test/android/app/src/main/AndroidManifest.xml:11:7-52
	android:icon
		ADDED from /home/raka/omind-test/android/app/src/main/AndroidManifest.xml:10:7-41
	android:allowBackup
		ADDED from /home/raka/omind-test/android/app/src/main/AndroidManifest.xml:12:7-34
	android:theme
		ADDED from /home/raka/omind-test/android/app/src/main/AndroidManifest.xml:13:7-38
	android:name
		ADDED from /home/raka/omind-test/android/app/src/main/AndroidManifest.xml:8:7-38
activity#com.omindtest.MainActivity
ADDED from /home/raka/omind-test/android/app/src/main/AndroidManifest.xml:14:7-24:18
	android:label
		ADDED from /home/raka/omind-test/android/app/src/main/AndroidManifest.xml:16:9-41
	android:launchMode
		ADDED from /home/raka/omind-test/android/app/src/main/AndroidManifest.xml:18:9-40
	android:windowSoftInputMode
		ADDED from /home/raka/omind-test/android/app/src/main/AndroidManifest.xml:19:9-51
	android:configChanges
		ADDED from /home/raka/omind-test/android/app/src/main/AndroidManifest.xml:17:9-86
	android:name
		ADDED from /home/raka/omind-test/android/app/src/main/AndroidManifest.xml:15:9-37
intent-filter#action:name:android.intent.action.MAIN+category:name:android.intent.category.LAUNCHER
ADDED from /home/raka/omind-test/android/app/src/main/AndroidManifest.xml:20:9-23:25
action#android.intent.action.MAIN
ADDED from /home/raka/omind-test/android/app/src/main/AndroidManifest.xml:21:13-65
	android:name
		ADDED from /home/raka/omind-test/android/app/src/main/AndroidManifest.xml:21:21-62
category#android.intent.category.LAUNCHER
ADDED from /home/raka/omind-test/android/app/src/main/AndroidManifest.xml:22:13-73
	android:name
		ADDED from /home/raka/omind-test/android/app/src/main/AndroidManifest.xml:22:23-70
activity#com.facebook.react.devsupport.DevSettingsActivity
ADDED from /home/raka/omind-test/android/app/src/main/AndroidManifest.xml:25:7-84
	android:name
		ADDED from /home/raka/omind-test/android/app/src/main/AndroidManifest.xml:25:17-81
uses-sdk
INJECTED from /home/raka/omind-test/android/app/src/main/AndroidManifest.xml reason: use-sdk injection requested
INJECTED from /home/raka/omind-test/android/app/src/main/AndroidManifest.xml
INJECTED from /home/raka/omind-test/android/app/src/main/AndroidManifest.xml
MERGED from [:react-native-async-storage_async-storage] /home/raka/omind-test/node_modules/@react-native-async-storage/async-storage/android/build/intermediates/library_manifest/release/AndroidManifest.xml:5:5-7:41
MERGED from [:react-native-async-storage_async-storage] /home/raka/omind-test/node_modules/@react-native-async-storage/async-storage/android/build/intermediates/library_manifest/release/AndroidManifest.xml:5:5-7:41
MERGED from [:react-native-community_masked-view] /home/raka/omind-test/node_modules/@react-native-community/masked-view/android/build/intermediates/library_manifest/release/AndroidManifest.xml:5:5-7:41
MERGED from [:react-native-community_masked-view] /home/raka/omind-test/node_modules/@react-native-community/masked-view/android/build/intermediates/library_manifest/release/AndroidManifest.xml:5:5-7:41
MERGED from [:react-native-picker_picker] /home/raka/omind-test/node_modules/@react-native-picker/picker/android/build/intermediates/library_manifest/release/AndroidManifest.xml:5:5-7:41
MERGED from [:react-native-picker_picker] /home/raka/omind-test/node_modules/@react-native-picker/picker/android/build/intermediates/library_manifest/release/AndroidManifest.xml:5:5-7:41
MERGED from [:react-native-gesture-handler] /home/raka/omind-test/node_modules/react-native-gesture-handler/android/build/intermediates/library_manifest/release/AndroidManifest.xml:7:5-9:41
MERGED from [:react-native-gesture-handler] /home/raka/omind-test/node_modules/react-native-gesture-handler/android/build/intermediates/library_manifest/release/AndroidManifest.xml:7:5-9:41
MERGED from [:react-native-image-picker] /home/raka/omind-test/node_modules/react-native-image-picker/android/build/intermediates/library_manifest/release/AndroidManifest.xml:5:5-7:41
MERGED from [:react-native-image-picker] /home/raka/omind-test/node_modules/react-native-image-picker/android/build/intermediates/library_manifest/release/AndroidManifest.xml:5:5-7:41
MERGED from [:react-native-reanimated] /home/raka/omind-test/node_modules/react-native-reanimated/android/build/intermediates/library_manifest/release/AndroidManifest.xml:7:5-9:41
MERGED from [:react-native-reanimated] /home/raka/omind-test/node_modules/react-native-reanimated/android/build/intermediates/library_manifest/release/AndroidManifest.xml:7:5-9:41
MERGED from [:react-native-safe-area-context] /home/raka/omind-test/node_modules/react-native-safe-area-context/android/build/intermediates/library_manifest/release/AndroidManifest.xml:5:5-7:41
MERGED from [:react-native-safe-area-context] /home/raka/omind-test/node_modules/react-native-safe-area-context/android/build/intermediates/library_manifest/release/AndroidManifest.xml:5:5-7:41
MERGED from [:react-native-screens] /home/raka/omind-test/node_modules/react-native-screens/android/build/intermediates/library_manifest/release/AndroidManifest.xml:7:5-9:41
MERGED from [:react-native-screens] /home/raka/omind-test/node_modules/react-native-screens/android/build/intermediates/library_manifest/release/AndroidManifest.xml:7:5-9:41
MERGED from [:react-native-vector-icons] /home/raka/omind-test/node_modules/react-native-vector-icons/android/build/intermediates/library_manifest/release/AndroidManifest.xml:7:5-9:41
MERGED from [:react-native-vector-icons] /home/raka/omind-test/node_modules/react-native-vector-icons/android/build/intermediates/library_manifest/release/AndroidManifest.xml:7:5-9:41
MERGED from [com.facebook.react:react-native:0.63.4] /home/raka/.gradle/caches/transforms-2/files-2.1/517cadc63f0cffa9df134976c7fd06b6/jetified-react-native-0.63.4/AndroidManifest.xml:7:5-9:41
MERGED from [com.facebook.react:react-native:0.63.4] /home/raka/.gradle/caches/transforms-2/files-2.1/517cadc63f0cffa9df134976c7fd06b6/jetified-react-native-0.63.4/AndroidManifest.xml:7:5-9:41
MERGED from [androidx.swiperefreshlayout:swiperefreshlayout:1.0.0] /home/raka/.gradle/caches/transforms-2/files-2.1/37b6f551bc5ae153b0b627de8f563815/swiperefreshlayout-1.0.0/AndroidManifest.xml:20:5-44
MERGED from [androidx.swiperefreshlayout:swiperefreshlayout:1.0.0] /home/raka/.gradle/caches/transforms-2/files-2.1/37b6f551bc5ae153b0b627de8f563815/swiperefreshlayout-1.0.0/AndroidManifest.xml:20:5-44
MERGED from [org.webkit:android-jsc:r245459] /home/raka/.gradle/caches/transforms-2/files-2.1/6dd6245206e34676e1ee3aa6ee0f68c9/android-jsc-r245459/AndroidManifest.xml:7:5-9:41
MERGED from [org.webkit:android-jsc:r245459] /home/raka/.gradle/caches/transforms-2/files-2.1/6dd6245206e34676e1ee3aa6ee0f68c9/android-jsc-r245459/AndroidManifest.xml:7:5-9:41
MERGED from [com.google.android.material:material:1.1.0] /home/raka/.gradle/caches/transforms-2/files-2.1/863e0c3c6716935cd3657ad638fd992d/material-1.1.0/AndroidManifest.xml:20:5-44
MERGED from [com.google.android.material:material:1.1.0] /home/raka/.gradle/caches/transforms-2/files-2.1/863e0c3c6716935cd3657ad638fd992d/material-1.1.0/AndroidManifest.xml:20:5-44
MERGED from [androidx.appcompat:appcompat:1.1.0] /home/raka/.gradle/caches/transforms-2/files-2.1/1cb9b9ea592aa2ea85233be252327dcf/appcompat-1.1.0/AndroidManifest.xml:20:5-22:41
MERGED from [androidx.appcompat:appcompat:1.1.0] /home/raka/.gradle/caches/transforms-2/files-2.1/1cb9b9ea592aa2ea85233be252327dcf/appcompat-1.1.0/AndroidManifest.xml:20:5-22:41
MERGED from [com.facebook.fresco:fresco:2.0.0] /home/raka/.gradle/caches/transforms-2/files-2.1/454c96154d0a2efb5f34ced0245cf76d/fresco-2.0.0/AndroidManifest.xml:5:5-7:41
MERGED from [com.facebook.fresco:fresco:2.0.0] /home/raka/.gradle/caches/transforms-2/files-2.1/454c96154d0a2efb5f34ced0245cf76d/fresco-2.0.0/AndroidManifest.xml:5:5-7:41
MERGED from [com.facebook.fresco:imagepipeline-okhttp3:2.0.0] /home/raka/.gradle/caches/transforms-2/files-2.1/559ddc4b7f576fedc63e05921b88e895/imagepipeline-okhttp3-2.0.0/AndroidManifest.xml:5:5-7:41
MERGED from [com.facebook.fresco:imagepipeline-okhttp3:2.0.0] /home/raka/.gradle/caches/transforms-2/files-2.1/559ddc4b7f576fedc63e05921b88e895/imagepipeline-okhttp3-2.0.0/AndroidManifest.xml:5:5-7:41
MERGED from [com.facebook.fresco:drawee:2.0.0] /home/raka/.gradle/caches/transforms-2/files-2.1/6c8969c989a883c90728abf2f80f32fb/drawee-2.0.0/AndroidManifest.xml:5:5-7:41
MERGED from [com.facebook.fresco:drawee:2.0.0] /home/raka/.gradle/caches/transforms-2/files-2.1/6c8969c989a883c90728abf2f80f32fb/drawee-2.0.0/AndroidManifest.xml:5:5-7:41
MERGED from [com.facebook.fresco:nativeimagefilters:2.0.0] /home/raka/.gradle/caches/transforms-2/files-2.1/5a2410130ba40b82b4f9bed40d7f483e/nativeimagefilters-2.0.0/AndroidManifest.xml:5:5-7:41
MERGED from [com.facebook.fresco:nativeimagefilters:2.0.0] /home/raka/.gradle/caches/transforms-2/files-2.1/5a2410130ba40b82b4f9bed40d7f483e/nativeimagefilters-2.0.0/AndroidManifest.xml:5:5-7:41
MERGED from [com.facebook.fresco:imagepipeline:2.0.0] /home/raka/.gradle/caches/transforms-2/files-2.1/13dda75bcf2643fb917d5dc46398410e/imagepipeline-2.0.0/AndroidManifest.xml:5:5-7:41
MERGED from [com.facebook.fresco:imagepipeline:2.0.0] /home/raka/.gradle/caches/transforms-2/files-2.1/13dda75bcf2643fb917d5dc46398410e/imagepipeline-2.0.0/AndroidManifest.xml:5:5-7:41
MERGED from [com.facebook.fresco:nativeimagetranscoder:2.0.0] /home/raka/.gradle/caches/transforms-2/files-2.1/c416dd8728d3ebccaf2e74e1e1aab223/nativeimagetranscoder-2.0.0/AndroidManifest.xml:5:5-7:41
MERGED from [com.facebook.fresco:nativeimagetranscoder:2.0.0] /home/raka/.gradle/caches/transforms-2/files-2.1/c416dd8728d3ebccaf2e74e1e1aab223/nativeimagetranscoder-2.0.0/AndroidManifest.xml:5:5-7:41
MERGED from [com.facebook.fresco:imagepipeline-base:2.0.0] /home/raka/.gradle/caches/transforms-2/files-2.1/95ee73f6c014e94cc84e3a19f64125f8/imagepipeline-base-2.0.0/AndroidManifest.xml:5:5-7:41
MERGED from [com.facebook.fresco:imagepipeline-base:2.0.0] /home/raka/.gradle/caches/transforms-2/files-2.1/95ee73f6c014e94cc84e3a19f64125f8/imagepipeline-base-2.0.0/AndroidManifest.xml:5:5-7:41
MERGED from [com.facebook.soloader:soloader:0.9.0] /home/raka/.gradle/caches/transforms-2/files-2.1/c34148f30cbc3e974eff21cbfb6a112a/soloader-0.9.0/AndroidManifest.xml:7:5-9:41
MERGED from [com.facebook.soloader:soloader:0.9.0] /home/raka/.gradle/caches/transforms-2/files-2.1/c34148f30cbc3e974eff21cbfb6a112a/soloader-0.9.0/AndroidManifest.xml:7:5-9:41
MERGED from [androidx.appcompat:appcompat-resources:1.1.0] /home/raka/.gradle/caches/transforms-2/files-2.1/b1b165607eae60d70e4267b97e24514b/appcompat-resources-1.1.0/AndroidManifest.xml:20:5-22:41
MERGED from [androidx.appcompat:appcompat-resources:1.1.0] /home/raka/.gradle/caches/transforms-2/files-2.1/b1b165607eae60d70e4267b97e24514b/appcompat-resources-1.1.0/AndroidManifest.xml:20:5-22:41
MERGED from [androidx.vectordrawable:vectordrawable-animated:1.1.0] /home/raka/.gradle/caches/transforms-2/files-2.1/28888a6f6660db47b3788df392c672a7/vectordrawable-animated-1.1.0/AndroidManifest.xml:20:5-22:41
MERGED from [androidx.vectordrawable:vectordrawable-animated:1.1.0] /home/raka/.gradle/caches/transforms-2/files-2.1/28888a6f6660db47b3788df392c672a7/vectordrawable-animated-1.1.0/AndroidManifest.xml:20:5-22:41
MERGED from [androidx.interpolator:interpolator:1.0.0] /home/raka/.gradle/caches/transforms-2/files-2.1/efb592adf2592d134c27edc4a56e19d2/interpolator-1.0.0/AndroidManifest.xml:20:5-44
MERGED from [androidx.interpolator:interpolator:1.0.0] /home/raka/.gradle/caches/transforms-2/files-2.1/efb592adf2592d134c27edc4a56e19d2/interpolator-1.0.0/AndroidManifest.xml:20:5-44
MERGED from [androidx.viewpager2:viewpager2:1.0.0] /home/raka/.gradle/caches/transforms-2/files-2.1/8cd6316737e8f518184be95be51b9ee8/viewpager2-1.0.0/AndroidManifest.xml:20:5-22:41
MERGED from [androidx.viewpager2:viewpager2:1.0.0] /home/raka/.gradle/caches/transforms-2/files-2.1/8cd6316737e8f518184be95be51b9ee8/viewpager2-1.0.0/AndroidManifest.xml:20:5-22:41
MERGED from [androidx.fragment:fragment:1.2.1] /home/raka/.gradle/caches/transforms-2/files-2.1/37aaca75d3d19faa6fb296103cea95d8/fragment-1.2.1/AndroidManifest.xml:20:5-22:41
MERGED from [androidx.fragment:fragment:1.2.1] /home/raka/.gradle/caches/transforms-2/files-2.1/37aaca75d3d19faa6fb296103cea95d8/fragment-1.2.1/AndroidManifest.xml:20:5-22:41
MERGED from [androidx.coordinatorlayout:coordinatorlayout:1.1.0] /home/raka/.gradle/caches/transforms-2/files-2.1/c062602fe4e1f75f724363688044d993/coordinatorlayout-1.1.0/AndroidManifest.xml:20:5-22:41
MERGED from [androidx.coordinatorlayout:coordinatorlayout:1.1.0] /home/raka/.gradle/caches/transforms-2/files-2.1/c062602fe4e1f75f724363688044d993/coordinatorlayout-1.1.0/AndroidManifest.xml:20:5-22:41
MERGED from [androidx.drawerlayout:drawerlayout:1.0.0] /home/raka/.gradle/caches/transforms-2/files-2.1/c99af001058cd5265376dded8456f828/drawerlayout-1.0.0/AndroidManifest.xml:20:5-44
MERGED from [androidx.drawerlayout:drawerlayout:1.0.0] /home/raka/.gradle/caches/transforms-2/files-2.1/c99af001058cd5265376dded8456f828/drawerlayout-1.0.0/AndroidManifest.xml:20:5-44
MERGED from [androidx.viewpager:viewpager:1.0.0] /home/raka/.gradle/caches/transforms-2/files-2.1/40f1c5d439eea30faeaafe93e7bdf45f/viewpager-1.0.0/AndroidManifest.xml:20:5-44
MERGED from [androidx.viewpager:viewpager:1.0.0] /home/raka/.gradle/caches/transforms-2/files-2.1/40f1c5d439eea30faeaafe93e7bdf45f/viewpager-1.0.0/AndroidManifest.xml:20:5-44
MERGED from [androidx.loader:loader:1.0.0] /home/raka/.gradle/caches/transforms-2/files-2.1/faa15558a5d57e35e462c9e1f0248694/loader-1.0.0/AndroidManifest.xml:20:5-44
MERGED from [androidx.loader:loader:1.0.0] /home/raka/.gradle/caches/transforms-2/files-2.1/faa15558a5d57e35e462c9e1f0248694/loader-1.0.0/AndroidManifest.xml:20:5-44
MERGED from [androidx.activity:activity:1.1.0] /home/raka/.gradle/caches/transforms-2/files-2.1/89bcabef273c834c0566b445ed28172c/activity-1.1.0/AndroidManifest.xml:20:5-22:41
MERGED from [androidx.activity:activity:1.1.0] /home/raka/.gradle/caches/transforms-2/files-2.1/89bcabef273c834c0566b445ed28172c/activity-1.1.0/AndroidManifest.xml:20:5-22:41
MERGED from [androidx.recyclerview:recyclerview:1.1.0] /home/raka/.gradle/caches/transforms-2/files-2.1/4300f0cd89d6453d731712a999b6e53f/recyclerview-1.1.0/AndroidManifest.xml:20:5-22:41
MERGED from [androidx.recyclerview:recyclerview:1.1.0] /home/raka/.gradle/caches/transforms-2/files-2.1/4300f0cd89d6453d731712a999b6e53f/recyclerview-1.1.0/AndroidManifest.xml:20:5-22:41
MERGED from [androidx.customview:customview:1.0.0] /home/raka/.gradle/caches/transforms-2/files-2.1/e0a79d4379c4eef3803202a497c19313/customview-1.0.0/AndroidManifest.xml:20:5-44
MERGED from [androidx.customview:customview:1.0.0] /home/raka/.gradle/caches/transforms-2/files-2.1/e0a79d4379c4eef3803202a497c19313/customview-1.0.0/AndroidManifest.xml:20:5-44
MERGED from [androidx.transition:transition:1.2.0] /home/raka/.gradle/caches/transforms-2/files-2.1/820068d4be612586a05a9daff9be7b77/transition-1.2.0/AndroidManifest.xml:20:5-22:41
MERGED from [androidx.transition:transition:1.2.0] /home/raka/.gradle/caches/transforms-2/files-2.1/820068d4be612586a05a9daff9be7b77/transition-1.2.0/AndroidManifest.xml:20:5-22:41
MERGED from [androidx.vectordrawable:vectordrawable:1.1.0] /home/raka/.gradle/caches/transforms-2/files-2.1/6bd464ed06f075f4e42b3fde6a89e60a/vectordrawable-1.1.0/AndroidManifest.xml:20:5-22:41
MERGED from [androidx.vectordrawable:vectordrawable:1.1.0] /home/raka/.gradle/caches/transforms-2/files-2.1/6bd464ed06f075f4e42b3fde6a89e60a/vectordrawable-1.1.0/AndroidManifest.xml:20:5-22:41
MERGED from [androidx.core:core:1.1.0] /home/raka/.gradle/caches/transforms-2/files-2.1/639e914bfc1efa21e36199d3ff2c5eef/core-1.1.0/AndroidManifest.xml:20:5-22:41
MERGED from [androidx.core:core:1.1.0] /home/raka/.gradle/caches/transforms-2/files-2.1/639e914bfc1efa21e36199d3ff2c5eef/core-1.1.0/AndroidManifest.xml:20:5-22:41
MERGED from [androidx.cursoradapter:cursoradapter:1.0.0] /home/raka/.gradle/caches/transforms-2/files-2.1/3b41f2ef3d4a30256bbd9d1017371108/cursoradapter-1.0.0/AndroidManifest.xml:20:5-44
MERGED from [androidx.cursoradapter:cursoradapter:1.0.0] /home/raka/.gradle/caches/transforms-2/files-2.1/3b41f2ef3d4a30256bbd9d1017371108/cursoradapter-1.0.0/AndroidManifest.xml:20:5-44
MERGED from [androidx.versionedparcelable:versionedparcelable:1.1.0] /home/raka/.gradle/caches/transforms-2/files-2.1/2786c84c1e653e40bd67508414ca298f/versionedparcelable-1.1.0/AndroidManifest.xml:20:5-22:41
MERGED from [androidx.versionedparcelable:versionedparcelable:1.1.0] /home/raka/.gradle/caches/transforms-2/files-2.1/2786c84c1e653e40bd67508414ca298f/versionedparcelable-1.1.0/AndroidManifest.xml:20:5-22:41
MERGED from [androidx.lifecycle:lifecycle-viewmodel-savedstate:2.2.0] /home/raka/.gradle/caches/transforms-2/files-2.1/db36fbbf4470b1ce63fe644e40ae81d3/lifecycle-viewmodel-savedstate-2.2.0/AndroidManifest.xml:20:5-22:41
MERGED from [androidx.lifecycle:lifecycle-viewmodel-savedstate:2.2.0] /home/raka/.gradle/caches/transforms-2/files-2.1/db36fbbf4470b1ce63fe644e40ae81d3/lifecycle-viewmodel-savedstate-2.2.0/AndroidManifest.xml:20:5-22:41
MERGED from [androidx.lifecycle:lifecycle-viewmodel:2.2.0] /home/raka/.gradle/caches/transforms-2/files-2.1/304e6293e0820147023aa187c0f862e1/lifecycle-viewmodel-2.2.0/AndroidManifest.xml:20:5-22:41
MERGED from [androidx.lifecycle:lifecycle-viewmodel:2.2.0] /home/raka/.gradle/caches/transforms-2/files-2.1/304e6293e0820147023aa187c0f862e1/lifecycle-viewmodel-2.2.0/AndroidManifest.xml:20:5-22:41
MERGED from [androidx.cardview:cardview:1.0.0] /home/raka/.gradle/caches/transforms-2/files-2.1/7ce8a2eb9e81825ec9bcc373c597a746/cardview-1.0.0/AndroidManifest.xml:20:5-44
MERGED from [androidx.cardview:cardview:1.0.0] /home/raka/.gradle/caches/transforms-2/files-2.1/7ce8a2eb9e81825ec9bcc373c597a746/cardview-1.0.0/AndroidManifest.xml:20:5-44
MERGED from [androidx.lifecycle:lifecycle-runtime:2.2.0] /home/raka/.gradle/caches/transforms-2/files-2.1/124ee19a63f3e171c196264ecc845daa/lifecycle-runtime-2.2.0/AndroidManifest.xml:20:5-22:41
MERGED from [androidx.lifecycle:lifecycle-runtime:2.2.0] /home/raka/.gradle/caches/transforms-2/files-2.1/124ee19a63f3e171c196264ecc845daa/lifecycle-runtime-2.2.0/AndroidManifest.xml:20:5-22:41
MERGED from [androidx.savedstate:savedstate:1.0.0] /home/raka/.gradle/caches/transforms-2/files-2.1/4ce17f8b4390b23da9bedc3cee010ec1/savedstate-1.0.0/AndroidManifest.xml:20:5-22:41
MERGED from [androidx.savedstate:savedstate:1.0.0] /home/raka/.gradle/caches/transforms-2/files-2.1/4ce17f8b4390b23da9bedc3cee010ec1/savedstate-1.0.0/AndroidManifest.xml:20:5-22:41
MERGED from [androidx.lifecycle:lifecycle-livedata:2.0.0] /home/raka/.gradle/caches/transforms-2/files-2.1/4da6ddd3c71dbaec92b0fdf3bbca4ce7/lifecycle-livedata-2.0.0/AndroidManifest.xml:20:5-44
MERGED from [androidx.lifecycle:lifecycle-livedata:2.0.0] /home/raka/.gradle/caches/transforms-2/files-2.1/4da6ddd3c71dbaec92b0fdf3bbca4ce7/lifecycle-livedata-2.0.0/AndroidManifest.xml:20:5-44
MERGED from [androidx.lifecycle:lifecycle-livedata-core:2.2.0] /home/raka/.gradle/caches/transforms-2/files-2.1/2ef959591ee3dfd7e7d0f130ebacb270/lifecycle-livedata-core-2.2.0/AndroidManifest.xml:20:5-22:41
MERGED from [androidx.lifecycle:lifecycle-livedata-core:2.2.0] /home/raka/.gradle/caches/transforms-2/files-2.1/2ef959591ee3dfd7e7d0f130ebacb270/lifecycle-livedata-core-2.2.0/AndroidManifest.xml:20:5-22:41
MERGED from [androidx.arch.core:core-runtime:2.1.0] /home/raka/.gradle/caches/transforms-2/files-2.1/babedcb26ba2505096ea9fb87ec93180/core-runtime-2.1.0/AndroidManifest.xml:20:5-22:41
MERGED from [androidx.arch.core:core-runtime:2.1.0] /home/raka/.gradle/caches/transforms-2/files-2.1/babedcb26ba2505096ea9fb87ec93180/core-runtime-2.1.0/AndroidManifest.xml:20:5-22:41
MERGED from [com.facebook.fresco:fbcore:2.0.0] /home/raka/.gradle/caches/transforms-2/files-2.1/3fbaab37751197ac963d740c840fac2d/jetified-fbcore-2.0.0/AndroidManifest.xml:5:5-7:41
MERGED from [com.facebook.fresco:fbcore:2.0.0] /home/raka/.gradle/caches/transforms-2/files-2.1/3fbaab37751197ac963d740c840fac2d/jetified-fbcore-2.0.0/AndroidManifest.xml:5:5-7:41
INJECTED from /home/raka/omind-test/android/app/src/main/AndroidManifest.xml
INJECTED from /home/raka/omind-test/android/app/src/main/AndroidManifest.xml
	android:targetSdkVersion
		INJECTED from /home/raka/omind-test/android/app/src/main/AndroidManifest.xml
		ADDED from /home/raka/omind-test/android/app/src/main/AndroidManifest.xml
		INJECTED from /home/raka/omind-test/android/app/src/main/AndroidManifest.xml
	android:minSdkVersion
		INJECTED from /home/raka/omind-test/android/app/src/main/AndroidManifest.xml
		ADDED from /home/raka/omind-test/android/app/src/main/AndroidManifest.xml
		INJECTED from /home/raka/omind-test/android/app/src/main/AndroidManifest.xml
provider#com.imagepicker.FileProvider
ADDED from [:react-native-image-picker] /home/raka/omind-test/node_modules/react-native-image-picker/android/build/intermediates/library_manifest/release/AndroidManifest.xml:10:9-18:20
	android:grantUriPermissions
		ADDED from [:react-native-image-picker] /home/raka/omind-test/node_modules/react-native-image-picker/android/build/intermediates/library_manifest/release/AndroidManifest.xml:14:13-47
	android:authorities
		ADDED from [:react-native-image-picker] /home/raka/omind-test/node_modules/react-native-image-picker/android/build/intermediates/library_manifest/release/AndroidManifest.xml:12:13-60
	android:exported
		ADDED from [:react-native-image-picker] /home/raka/omind-test/node_modules/react-native-image-picker/android/build/intermediates/library_manifest/release/AndroidManifest.xml:13:13-37
	android:name
		ADDED from [:react-native-image-picker] /home/raka/omind-test/node_modules/react-native-image-picker/android/build/intermediates/library_manifest/release/AndroidManifest.xml:11:13-56
meta-data#android.support.FILE_PROVIDER_PATHS
ADDED from [:react-native-image-picker] /home/raka/omind-test/node_modules/react-native-image-picker/android/build/intermediates/library_manifest/release/AndroidManifest.xml:15:13-17:58
	android:resource
		ADDED from [:react-native-image-picker] /home/raka/omind-test/node_modules/react-native-image-picker/android/build/intermediates/library_manifest/release/AndroidManifest.xml:17:17-55
	android:name
		ADDED from [:react-native-image-picker] /home/raka/omind-test/node_modules/react-native-image-picker/android/build/intermediates/library_manifest/release/AndroidManifest.xml:16:17-67
